{
  "tracks": {
    "href": "https://api.spotify.com/v1/search?query=remaster%2520track%3AAMelancholy%2520artist%3AAVALON&type=track&market=FI&offset=0&limit=10",
    "items": [
      {
        "album": {
          "album_type": "album",
          "artists": [
            {
              "external_urls": {
                "spotify": "https://open.spotify.com/artist/1VPmR4DJC1PlOtd0IADAO0"
              },
              "href": "https://api.spotify.com/v1/artists/1VPmR4DJC1PlOtd0IADAO0",
              "id": "1VPmR4DJC1PlOtd0IADAO0",
              "name": "$uicideboy$",
              "type": "artist",
              "uri": "spotify:artist:1VPmR4DJC1PlOtd0IADAO0"
            }
          ],
          "external_urls": {
            "spotify": "https://open.spotify.com/album/3dgsCZMswt6TWbsKcMgoO2"
          },
          "href": "https://api.spotify.com/v1/albums/3dgsCZMswt6TWbsKcMgoO2",
          "id": "3dgsCZMswt6TWbsKcMgoO2",
          "images": [
            {
              "height": 640,
              "url": "https://i.scdn.co/image/ab67616d0000b273b25093d7ccdce4a848988f9e",
              "width": 640
            },
            {
              "height": 300,
              "url": "https://i.scdn.co/image/ab67616d00001e02b25093d7ccdce4a848988f9e",
              "width": 300
            },
            {
              "height": 64,
              "url": "https://i.scdn.co/image/ab67616d00004851b25093d7ccdce4a848988f9e",
              "width": 64
            }
          ],
          "is_playable": true,
          "name": "Long Term Effects of SUFFERING",
          "release_date": "2021-08-13",
          "release_date_precision": "day",
          "total_tracks": 13,
          "type": "album",
          "uri": "spotify:album:3dgsCZMswt6TWbsKcMgoO2"
        },
        "artists": [
          {
            "external_urls": {
              "spotify": "https://open.spotify.com/artist/1VPmR4DJC1PlOtd0IADAO0"
            },
            "href": "https://api.spotify.com/v1/artists/1VPmR4DJC1PlOtd0IADAO0",
            "id": "1VPmR4DJC1PlOtd0IADAO0",
            "name": "$uicideboy$",
            "type": "artist",
            "uri": "spotify:artist:1VPmR4DJC1PlOtd0IADAO0"
          }
        ],
        "disc_number": 1,
        "duration_ms": 140858,
        "explicit": true,
        "external_ids": {
          "isrc": "QZAPK2000176"
        },
        "external_urls": {
          "spotify": "https://open.spotify.com/track/19n8izXThARSuQAXrOKNbO"
        },
        "href": "https://api.spotify.com/v1/tracks/19n8izXThARSuQAXrOKNbO",
        "id": "19n8izXThARSuQAXrOKNbO",
        "is_local": false,
        "is_playable": true,
        "name": "Avalon",
        "popularity": 70,
        "preview_url": "https://p.scdn.co/mp3-preview/cc1d8145f195fcdec7e1858833b5f88f1fe9d9ec?cid=326ea5fdd27d464cb5866b44109f1667",
        "track_number": 10,
        "type": "track",
        "uri": "spotify:track:19n8izXThARSuQAXrOKNbO"
      },
      {
        "album": {
          "album_type": "album",
          "artists": [
            {
              "external_urls": {
                "spotify": "https://open.spotify.com/artist/7MhMgCo0Bl0Kukl93PZbYS"
              },
              "href": "https://api.spotify.com/v1/artists/7MhMgCo0Bl0Kukl93PZbYS",
              "id": "7MhMgCo0Bl0Kukl93PZbYS",
              "name": "Blur",
              "type": "artist",
              "uri": "spotify:artist:7MhMgCo0Bl0Kukl93PZbYS"
            }
          ],
          "external_urls": {
            "spotify": "https://open.spotify.com/album/0gIZSG9WUDO3TK0B5y7UtU"
          },
          "href": "https://api.spotify.com/v1/albums/0gIZSG9WUDO3TK0B5y7UtU",
          "id": "0gIZSG9WUDO3TK0B5y7UtU",
          "images": [
            {
              "height": 640,
              "url": "https://i.scdn.co/image/ab67616d0000b273fc24d1ba493032a046ffd68a",
              "width": 640
            },
            {
              "height": 300,
              "url": "https://i.scdn.co/image/ab67616d00001e02fc24d1ba493032a046ffd68a",
              "width": 300
            },
            {
              "height": 64,
              "url": "https://i.scdn.co/image/ab67616d00004851fc24d1ba493032a046ffd68a",
              "width": 64
            }
          ],
          "is_playable": true,
          "name": "The Ballad of Darren",
          "release_date": "2023-07-21",
          "release_date_precision": "day",
          "total_tracks": 10,
          "type": "album",
          "uri": "spotify:album:0gIZSG9WUDO3TK0B5y7UtU"
        },
        "artists": [
          {
            "external_urls": {
              "spotify": "https://open.spotify.com/artist/7MhMgCo0Bl0Kukl93PZbYS"
            },
            "href": "https://api.spotify.com/v1/artists/7MhMgCo0Bl0Kukl93PZbYS",
            "id": "7MhMgCo0Bl0Kukl93PZbYS",
            "name": "Blur",
            "type": "artist",
            "uri": "spotify:artist:7MhMgCo0Bl0Kukl93PZbYS"
          }
        ],
        "disc_number": 1,
        "duration_ms": 185085,
        "explicit": false,
        "external_ids": {
          "isrc": "GBAYE2300873"
        },
        "external_urls": {
          "spotify": "https://open.spotify.com/track/04dv9cmB2ZaAC5EgewTKek"
        },
        "href": "https://api.spotify.com/v1/tracks/04dv9cmB2ZaAC5EgewTKek",
        "id": "04dv9cmB2ZaAC5EgewTKek",
        "is_local": false,
        "is_playable": true,
        "name": "Avalon",
        "popularity": 39,
        "preview_url": "https://p.scdn.co/mp3-preview/b56441eea6d595e64c86020c867d5ef6ae4cb3a9?cid=326ea5fdd27d464cb5866b44109f1667",
        "track_number": 9,
        "type": "track",
        "uri": "spotify:track:04dv9cmB2ZaAC5EgewTKek"
      },
      {
        "album": {
          "album_type": "compilation",
          "artists": [
            {
              "external_urls": {
                "spotify": "https://open.spotify.com/artist/5RNFFojXkPRmlJZIwXeKQC"
              },
              "href": "https://api.spotify.com/v1/artists/5RNFFojXkPRmlJZIwXeKQC",
              "id": "5RNFFojXkPRmlJZIwXeKQC",
              "name": "Bryan Ferry",
              "type": "artist",
              "uri": "spotify:artist:5RNFFojXkPRmlJZIwXeKQC"
            },
            {
              "external_urls": {
                "spotify": "https://open.spotify.com/artist/3fhOTtm0LBJ3Ojn4hIljLo"
              },
              "href": "https://api.spotify.com/v1/artists/3fhOTtm0LBJ3Ojn4hIljLo",
              "id": "3fhOTtm0LBJ3Ojn4hIljLo",
              "name": "Roxy Music",
              "type": "artist",
              "uri": "spotify:artist:3fhOTtm0LBJ3Ojn4hIljLo"
            }
          ],
          "external_urls": {
            "spotify": "https://open.spotify.com/album/7MCxE9Sx4zHSXL4xXHm4Im"
          },
          "href": "https://api.spotify.com/v1/albums/7MCxE9Sx4zHSXL4xXHm4Im",
          "id": "7MCxE9Sx4zHSXL4xXHm4Im",
          "images": [
            {
              "height": 640,
              "url": "https://i.scdn.co/image/ab67616d0000b27327d0b9a66c05099a650ddcbf",
              "width": 640
            },
            {
              "height": 300,
              "url": "https://i.scdn.co/image/ab67616d00001e0227d0b9a66c05099a650ddcbf",
              "width": 300
            },
            {
              "height": 64,
              "url": "https://i.scdn.co/image/ab67616d0000485127d0b9a66c05099a650ddcbf",
              "width": 64
            }
          ],
          "is_playable": true,
          "name": "More Than This - The Best Of Bryan Ferry And Roxy Music",
          "release_date": "1995-01-01",
          "release_date_precision": "day",
          "total_tracks": 20,
          "type": "album",
          "uri": "spotify:album:7MCxE9Sx4zHSXL4xXHm4Im"
        },
        "artists": [
          {
            "external_urls": {
              "spotify": "https://open.spotify.com/artist/3fhOTtm0LBJ3Ojn4hIljLo"
            },
            "href": "https://api.spotify.com/v1/artists/3fhOTtm0LBJ3Ojn4hIljLo",
            "id": "3fhOTtm0LBJ3Ojn4hIljLo",
            "name": "Roxy Music",
            "type": "artist",
            "uri": "spotify:artist:3fhOTtm0LBJ3Ojn4hIljLo"
          }
        ],
        "disc_number": 1,
        "duration_ms": 256760,
        "explicit": false,
        "external_ids": {
          "isrc": "GBAAA8200001"
        },
        "external_urls": {
          "spotify": "https://open.spotify.com/track/61y28QdZIXzVtNIs3xZuaT"
        },
        "href": "https://api.spotify.com/v1/tracks/61y28QdZIXzVtNIs3xZuaT",
        "id": "61y28QdZIXzVtNIs3xZuaT",
        "is_local": false,
        "is_playable": true,
        "name": "Avalon",
        "popularity": 47,
        "preview_url": null,
        "track_number": 19,
        "type": "track",
        "uri": "spotify:track:61y28QdZIXzVtNIs3xZuaT"
      },
      {
        "album": {
          "album_type": "compilation",
          "artists": [
            {
              "external_urls": {
                "spotify": "https://open.spotify.com/artist/3fhOTtm0LBJ3Ojn4hIljLo"
              },
              "href": "https://api.spotify.com/v1/artists/3fhOTtm0LBJ3Ojn4hIljLo",
              "id": "3fhOTtm0LBJ3Ojn4hIljLo",
              "name": "Roxy Music",
              "type": "artist",
              "uri": "spotify:artist:3fhOTtm0LBJ3Ojn4hIljLo"
            }
          ],
          "external_urls": {
            "spotify": "https://open.spotify.com/album/6yui99cp2Q3dosoHtiPJk7"
          },
          "href": "https://api.spotify.com/v1/albums/6yui99cp2Q3dosoHtiPJk7",
          "id": "6yui99cp2Q3dosoHtiPJk7",
          "images": [
            {
              "height": 640,
              "url": "https://i.scdn.co/image/ab67616d0000b273cdd6f71f3d22476a9a1319cd",
              "width": 640
            },
            {
              "height": 300,
              "url": "https://i.scdn.co/image/ab67616d00001e02cdd6f71f3d22476a9a1319cd",
              "width": 300
            },
            {
              "height": 64,
              "url": "https://i.scdn.co/image/ab67616d00004851cdd6f71f3d22476a9a1319cd",
              "width": 64
            }
          ],
          "is_playable": true,
          "name": "The Best Of Roxy Music",
          "release_date": "2001-01-01",
          "release_date_precision": "day",
          "total_tracks": 18,
          "type": "album",
          "uri": "spotify:album:6yui99cp2Q3dosoHtiPJk7"
        },
        "artists": [
          {
            "external_urls": {
              "spotify": "https://open.spotify.com/artist/3fhOTtm0LBJ3Ojn4hIljLo"
            },
            "href": "https://api.spotify.com/v1/artists/3fhOTtm0LBJ3Ojn4hIljLo",
            "id": "3fhOTtm0LBJ3Ojn4hIljLo",
            "name": "Roxy Music",
            "type": "artist",
            "uri": "spotify:artist:3fhOTtm0LBJ3Ojn4hIljLo"
          }
        ],
        "disc_number": 1,
        "duration_ms": 256532,
        "explicit": false,
        "external_ids": {
          "isrc": "GBAAA9900094"
        },
        "external_urls": {
          "spotify": "https://open.spotify.com/track/7nXIBbHxIYn9qNH6ZD3nx9"
        },
        "href": "https://api.spotify.com/v1/tracks/7nXIBbHxIYn9qNH6ZD3nx9",
        "id": "7nXIBbHxIYn9qNH6ZD3nx9",
        "is_local": false,
        "is_playable": true,
        "name": "Avalon",
        "popularity": 36,
        "preview_url": null,
        "track_number": 1,
        "type": "track",
        "uri": "spotify:track:7nXIBbHxIYn9qNH6ZD3nx9"
      },
      {
        "album": {
          "album_type": "album",
          "artists": [
            {
              "external_urls": {
                "spotify": "https://open.spotify.com/artist/0oJM3iJjMdzgsd4z5VHQvw"
              },
              "href": "https://api.spotify.com/v1/artists/0oJM3iJjMdzgsd4z5VHQvw",
              "id": "0oJM3iJjMdzgsd4z5VHQvw",
              "name": "Professor Green",
              "type": "artist",
              "uri": "spotify:artist:0oJM3iJjMdzgsd4z5VHQvw"
            }
          ],
          "external_urls": {
            "spotify": "https://open.spotify.com/album/1DrD9yINGa4J2xb37dGZ8u"
          },
          "href": "https://api.spotify.com/v1/albums/1DrD9yINGa4J2xb37dGZ8u",
          "id": "1DrD9yINGa4J2xb37dGZ8u",
          "images": [
            {
              "height": 640,
              "url": "https://i.scdn.co/image/ab67616d0000b2733804f59392452edd9c2b46b8",
              "width": 640
            },
            {
              "height": 300,
              "url": "https://i.scdn.co/image/ab67616d00001e023804f59392452edd9c2b46b8",
              "width": 300
            },
            {
              "height": 64,
              "url": "https://i.scdn.co/image/ab67616d000048513804f59392452edd9c2b46b8",
              "width": 64
            }
          ],
          "is_playable": true,
          "name": "At Your Inconvenience",
          "release_date": "2011-01-01",
          "release_date_precision": "day",
          "total_tracks": 15,
          "type": "album",
          "uri": "spotify:album:1DrD9yINGa4J2xb37dGZ8u"
        },
        "artists": [
          {
            "external_urls": {
              "spotify": "https://open.spotify.com/artist/0oJM3iJjMdzgsd4z5VHQvw"
            },
            "href": "https://api.spotify.com/v1/artists/0oJM3iJjMdzgsd4z5VHQvw",
            "id": "0oJM3iJjMdzgsd4z5VHQvw",
            "name": "Professor Green",
            "type": "artist",
            "uri": "spotify:artist:0oJM3iJjMdzgsd4z5VHQvw"
          },
          {
            "external_urls": {
              "spotify": "https://open.spotify.com/artist/6mFqh3A0sHd0exDw2Of8dG"
            },
            "href": "https://api.spotify.com/v1/artists/6mFqh3A0sHd0exDw2Of8dG",
            "id": "6mFqh3A0sHd0exDw2Of8dG",
            "name": "Sierra Kusterbeck",
            "type": "artist",
            "uri": "spotify:artist:6mFqh3A0sHd0exDw2Of8dG"
          }
        ],
        "disc_number": 1,
        "duration_ms": 284356,
        "explicit": true,
        "external_ids": {
          "isrc": "GBAAA1100382"
        },
        "external_urls": {
          "spotify": "https://open.spotify.com/track/3LmQEOvnmg6k2q21hEQseG"
        },
        "href": "https://api.spotify.com/v1/tracks/3LmQEOvnmg6k2q21hEQseG",
        "id": "3LmQEOvnmg6k2q21hEQseG",
        "is_local": false,
        "is_playable": true,
        "name": "Avalon",
        "popularity": 27,
        "preview_url": null,
        "track_number": 8,
        "type": "track",
        "uri": "spotify:track:3LmQEOvnmg6k2q21hEQseG"
      },
      {
        "album": {
          "album_type": "album",
          "artists": [
            {
              "external_urls": {
                "spotify": "https://open.spotify.com/artist/4yrO1N273PlTaixa4BNwBz"
              },
              "href": "https://api.spotify.com/v1/artists/4yrO1N273PlTaixa4BNwBz",
              "id": "4yrO1N273PlTaixa4BNwBz",
              "name": "Avalon Emerson",
              "type": "artist",
              "uri": "spotify:artist:4yrO1N273PlTaixa4BNwBz"
            }
          ],
          "external_urls": {
            "spotify": "https://open.spotify.com/album/6gRl7N6UQKKmXCv3nhYlMu"
          },
          "href": "https://api.spotify.com/v1/albums/6gRl7N6UQKKmXCv3nhYlMu",
          "id": "6gRl7N6UQKKmXCv3nhYlMu",
          "images": [
            {
              "height": 640,
              "url": "https://i.scdn.co/image/ab67616d0000b2737062455feea07efa8a9e65e9",
              "width": 640
            },
            {
              "height": 300,
              "url": "https://i.scdn.co/image/ab67616d00001e027062455feea07efa8a9e65e9",
              "width": 300
            },
            {
              "height": 64,
              "url": "https://i.scdn.co/image/ab67616d000048517062455feea07efa8a9e65e9",
              "width": 64
            }
          ],
          "is_playable": true,
          "name": "& the Charm",
          "release_date": "2023-04-28",
          "release_date_precision": "day",
          "total_tracks": 9,
          "type": "album",
          "uri": "spotify:album:6gRl7N6UQKKmXCv3nhYlMu"
        },
        "artists": [
          {
            "external_urls": {
              "spotify": "https://open.spotify.com/artist/4yrO1N273PlTaixa4BNwBz"
            },
            "href": "https://api.spotify.com/v1/artists/4yrO1N273PlTaixa4BNwBz",
            "id": "4yrO1N273PlTaixa4BNwBz",
            "name": "Avalon Emerson",
            "type": "artist",
            "uri": "spotify:artist:4yrO1N273PlTaixa4BNwBz"
          }
        ],
        "disc_number": 1,
        "duration_ms": 269446,
        "explicit": false,
        "external_ids": {
          "isrc": "QZAKB2301298"
        },
        "external_urls": {
          "spotify": "https://open.spotify.com/track/23nECiREEvEMBDRZGodIks"
        },
        "href": "https://api.spotify.com/v1/tracks/23nECiREEvEMBDRZGodIks",
        "id": "23nECiREEvEMBDRZGodIks",
        "is_local": false,
        "is_playable": true,
        "name": "Sandrail Silhouette",
        "popularity": 36,
        "preview_url": "https://p.scdn.co/mp3-preview/acfe07d96bbd342e3b6e762c2e9024c32ae136ab?cid=326ea5fdd27d464cb5866b44109f1667",
        "track_number": 1,
        "type": "track",
        "uri": "spotify:track:23nECiREEvEMBDRZGodIks"
      },
      {
        "album": {
          "album_type": "album",
          "artists": [
            {
              "external_urls": {
                "spotify": "https://open.spotify.com/artist/4E0I7rDFoLnOLb76hcdJ0v"
              },
              "href": "https://api.spotify.com/v1/artists/4E0I7rDFoLnOLb76hcdJ0v",
              "id": "4E0I7rDFoLnOLb76hcdJ0v",
              "name": "Taku Iwasaki",
              "type": "artist",
              "uri": "spotify:artist:4E0I7rDFoLnOLb76hcdJ0v"
            }
          ],
          "external_urls": {
            "spotify": "https://open.spotify.com/album/0BcV1ohbg8vy1hvA6eHCjW"
          },
          "href": "https://api.spotify.com/v1/albums/0BcV1ohbg8vy1hvA6eHCjW",
          "id": "0BcV1ohbg8vy1hvA6eHCjW",
          "images": [
            {
              "height": 640,
              "url": "https://i.scdn.co/image/ab67616d0000b2735baaac94e0de2cbec4341d23",
              "width": 640
            },
            {
              "height": 300,
              "url": "https://i.scdn.co/image/ab67616d00001e025baaac94e0de2cbec4341d23",
              "width": 300
            },
            {
              "height": 64,
              "url": "https://i.scdn.co/image/ab67616d000048515baaac94e0de2cbec4341d23",
              "width": 64
            }
          ],
          "is_playable": true,
          "name": "JOJO'S BIZARRE ADVENTURE -O.S.T Battle Tendency [Musik]",
          "release_date": "2013-03-29",
          "release_date_precision": "day",
          "total_tracks": 22,
          "type": "album",
          "uri": "spotify:album:0BcV1ohbg8vy1hvA6eHCjW"
        },
        "artists": [
          {
            "external_urls": {
              "spotify": "https://open.spotify.com/artist/4E0I7rDFoLnOLb76hcdJ0v"
            },
            "href": "https://api.spotify.com/v1/artists/4E0I7rDFoLnOLb76hcdJ0v",
            "id": "4E0I7rDFoLnOLb76hcdJ0v",
            "name": "Taku Iwasaki",
            "type": "artist",
            "uri": "spotify:artist:4E0I7rDFoLnOLb76hcdJ0v"
          }
        ],
        "disc_number": 1,
        "duration_ms": 204106,
        "explicit": false,
        "external_ids": {
          "isrc": "JPQ461300051"
        },
        "external_urls": {
          "spotify": "https://open.spotify.com/track/45fZSh5YEqGKGxNPet3CEx"
        },
        "href": "https://api.spotify.com/v1/tracks/45fZSh5YEqGKGxNPet3CEx",
        "id": "45fZSh5YEqGKGxNPet3CEx",
        "is_local": false,
        "is_playable": true,
        "name": "Avalon",
        "popularity": 39,
        "preview_url": "https://p.scdn.co/mp3-preview/83fb1131d70eb3570af3cc4a2c1e7d3e3d8bad9e?cid=326ea5fdd27d464cb5866b44109f1667",
        "track_number": 20,
        "type": "track",
        "uri": "spotify:track:45fZSh5YEqGKGxNPet3CEx"
      },
      {
        "album": {
          "album_type": "single",
          "artists": [
            {
              "external_urls": {
                "spotify": "https://open.spotify.com/artist/4yrO1N273PlTaixa4BNwBz"
              },
              "href": "https://api.spotify.com/v1/artists/4yrO1N273PlTaixa4BNwBz",
              "id": "4yrO1N273PlTaixa4BNwBz",
              "name": "Avalon Emerson",
              "type": "artist",
              "uri": "spotify:artist:4yrO1N273PlTaixa4BNwBz"
            }
          ],
          "external_urls": {
            "spotify": "https://open.spotify.com/album/34ARyooCzTJw3YydlcqBiW"
          },
          "href": "https://api.spotify.com/v1/albums/34ARyooCzTJw3YydlcqBiW",
          "id": "34ARyooCzTJw3YydlcqBiW",
          "images": [
            {
              "height": 640,
              "url": "https://i.scdn.co/image/ab67616d0000b2734c4e48e38bf4bbae62440d87",
              "width": 640
            },
            {
              "height": 300,
              "url": "https://i.scdn.co/image/ab67616d00001e024c4e48e38bf4bbae62440d87",
              "width": 300
            },
            {
              "height": 64,
              "url": "https://i.scdn.co/image/ab67616d000048514c4e48e38bf4bbae62440d87",
              "width": 64
            }
          ],
          "is_playable": true,
          "name": "Whities 013",
          "release_date": "2017-11-03",
          "release_date_precision": "day",
          "total_tracks": 2,
          "type": "album",
          "uri": "spotify:album:34ARyooCzTJw3YydlcqBiW"
        },
        "artists": [
          {
            "external_urls": {
              "spotify": "https://open.spotify.com/artist/4yrO1N273PlTaixa4BNwBz"
            },
            "href": "https://api.spotify.com/v1/artists/4yrO1N273PlTaixa4BNwBz",
            "id": "4yrO1N273PlTaixa4BNwBz",
            "name": "Avalon Emerson",
            "type": "artist",
            "uri": "spotify:artist:4yrO1N273PlTaixa4BNwBz"
          }
        ],
        "disc_number": 1,
        "duration_ms": 387064,
        "explicit": false,
        "external_ids": {
          "isrc": "FRX201732775"
        },
        "external_urls": {
          "spotify": "https://open.spotify.com/track/0oHp0oW3RhkwBuNSDFY1Jq"
        },
        "href": "https://api.spotify.com/v1/tracks/0oHp0oW3RhkwBuNSDFY1Jq",
        "id": "0oHp0oW3RhkwBuNSDFY1Jq",
        "is_local": false,
        "is_playable": true,
        "name": "One More Fluorescent Rush",
        "popularity": 34,
        "preview_url": "https://p.scdn.co/mp3-preview/30589a4b8b2d569384b12c879fd04518d9dfe513?cid=326ea5fdd27d464cb5866b44109f1667",
        "track_number": 1,
        "type": "track",
        "uri": "spotify:track:0oHp0oW3RhkwBuNSDFY1Jq"
      },
      {
        "album": {
          "album_type": "single",
          "artists": [
            {
              "external_urls": {
                "spotify": "https://open.spotify.com/artist/1VPmR4DJC1PlOtd0IADAO0"
              },
              "href": "https://api.spotify.com/v1/artists/1VPmR4DJC1PlOtd0IADAO0",
              "id": "1VPmR4DJC1PlOtd0IADAO0",
              "name": "$uicideboy$",
              "type": "artist",
              "uri": "spotify:artist:1VPmR4DJC1PlOtd0IADAO0"
            }
          ],
          "external_urls": {
            "spotify": "https://open.spotify.com/album/2wg5abR3D5AFa0Ls7b0hok"
          },
          "href": "https://api.spotify.com/v1/albums/2wg5abR3D5AFa0Ls7b0hok",
          "id": "2wg5abR3D5AFa0Ls7b0hok",
          "images": [
            {
              "height": 640,
              "url": "https://i.scdn.co/image/ab67616d0000b273f416fe2400bfccc52add9520",
              "width": 640
            },
            {
              "height": 300,
              "url": "https://i.scdn.co/image/ab67616d00001e02f416fe2400bfccc52add9520",
              "width": 300
            },
            {
              "height": 64,
              "url": "https://i.scdn.co/image/ab67616d00004851f416fe2400bfccc52add9520",
              "width": 64
            }
          ],
          "is_playable": true,
          "name": "Materialism as a Means to an End",
          "release_date": "2021-07-16",
          "release_date_precision": "day",
          "total_tracks": 3,
          "type": "album",
          "uri": "spotify:album:2wg5abR3D5AFa0Ls7b0hok"
        },
        "artists": [
          {
            "external_urls": {
              "spotify": "https://open.spotify.com/artist/1VPmR4DJC1PlOtd0IADAO0"
            },
            "href": "https://api.spotify.com/v1/artists/1VPmR4DJC1PlOtd0IADAO0",
            "id": "1VPmR4DJC1PlOtd0IADAO0",
            "name": "$uicideboy$",
            "type": "artist",
            "uri": "spotify:artist:1VPmR4DJC1PlOtd0IADAO0"
          }
        ],
        "disc_number": 1,
        "duration_ms": 140858,
        "explicit": true,
        "external_ids": {
          "isrc": "QZAPK2000176"
        },
        "external_urls": {
          "spotify": "https://open.spotify.com/track/3aykPW16OZVdGekcpeYEH1"
        },
        "href": "https://api.spotify.com/v1/tracks/3aykPW16OZVdGekcpeYEH1",
        "id": "3aykPW16OZVdGekcpeYEH1",
        "is_local": false,
        "is_playable": true,
        "name": "Avalon",
        "popularity": 44,
        "preview_url": "https://p.scdn.co/mp3-preview/cc1d8145f195fcdec7e1858833b5f88f1fe9d9ec?cid=326ea5fdd27d464cb5866b44109f1667",
        "track_number": 3,
        "type": "track",
        "uri": "spotify:track:3aykPW16OZVdGekcpeYEH1"
      },
      {
        "album": {
          "album_type": "album",
          "artists": [
            {
              "external_urls": {
                "spotify": "https://open.spotify.com/artist/4yrO1N273PlTaixa4BNwBz"
              },
              "href": "https://api.spotify.com/v1/artists/4yrO1N273PlTaixa4BNwBz",
              "id": "4yrO1N273PlTaixa4BNwBz",
              "name": "Avalon Emerson",
              "type": "artist",
              "uri": "spotify:artist:4yrO1N273PlTaixa4BNwBz"
            }
          ],
          "external_urls": {
            "spotify": "https://open.spotify.com/album/6gRl7N6UQKKmXCv3nhYlMu"
          },
          "href": "https://api.spotify.com/v1/albums/6gRl7N6UQKKmXCv3nhYlMu",
          "id": "6gRl7N6UQKKmXCv3nhYlMu",
          "images": [
            {
              "height": 640,
              "url": "https://i.scdn.co/image/ab67616d0000b2737062455feea07efa8a9e65e9",
              "width": 640
            },
            {
              "height": 300,
              "url": "https://i.scdn.co/image/ab67616d00001e027062455feea07efa8a9e65e9",
              "width": 300
            },
            {
              "height": 64,
              "url": "https://i.scdn.co/image/ab67616d000048517062455feea07efa8a9e65e9",
              "width": 64
            }
          ],
          "is_playable": true,
          "name": "& the Charm",
          "release_date": "2023-04-28",
          "release_date_precision": "day",
          "total_tracks": 9,
          "type": "album",
          "uri": "spotify:album:6gRl7N6UQKKmXCv3nhYlMu"
        },
        "artists": [
          {
            "external_urls": {
              "spotify": "https://open.spotify.com/artist/4yrO1N273PlTaixa4BNwBz"
            },
            "href": "https://api.spotify.com/v1/artists/4yrO1N273PlTaixa4BNwBz",
            "id": "4yrO1N273PlTaixa4BNwBz",
            "name": "Avalon Emerson",
            "type": "artist",
            "uri": "spotify:artist:4yrO1N273PlTaixa4BNwBz"
          }
        ],
        "disc_number": 1,
        "duration_ms": 155514,
        "explicit": false,
        "external_ids": {
          "isrc": "QZAKB2309658"
        },
        "external_urls": {
          "spotify": "https://open.spotify.com/track/7rueVio20tc2wyZHo91C0h"
        },
        "href": "https://api.spotify.com/v1/tracks/7rueVio20tc2wyZHo91C0h",
        "id": "7rueVio20tc2wyZHo91C0h",
        "is_local": false,
        "is_playable": true,
        "name": "The Stone",
        "popularity": 26,
        "preview_url": "https://p.scdn.co/mp3-preview/895747b95818f8e4924511e5285473c618088c1e?cid=326ea5fdd27d464cb5866b44109f1667",
        "track_number": 5,
        "type": "track",
        "uri": "spotify:track:7rueVio20tc2wyZHo91C0h"
      }
    ],
    "limit": 10,
    "next": "https://api.spotify.com/v1/search?query=remaster%2520track%3AAMelancholy%2520artist%3AAVALON&type=track&market=FI&offset=10&limit=10",
    "offset": 0,
    "previous": null,
    "total": 800
  }
}
